{
    "id": 5741037,
    "@id": "https://themost.io/schemas/GeographicalRegion",
    "name": "GeographicalRegion",
    "title": "Geographical Region",
    "description": "A geographical region regions divided by physical characteristics.",
    "hidden": true,
    "sealed": false,
    "inherits": "Place",
    "version": "1.1",
    "fields": [
        {
            "name": "id",
            "title": "ID",
            "description": "The identifier of the item.",
            "type": "Integer",
            "nullable": false,
            "primary": true
        },
        {
            "@id": "http://schema.org/name",
            "name": "name",
            "title": "Name",
            "description": "The name of the item.",
            "type": "Text",
            "nullable": false
        },
        {
            "@id": "http://schema.org/additionalType",
            "name": "additionalType",
            "title": "Additional Type",
            "description": "An additional type for the item, typically used for adding more specific types from external vocabularies in microdata syntax. This is a relationship between something and a class that the thing is in. In RDFa syntax, it is better to use the native RDFa syntax - the 'typeof' attribute - for multiple types. Schema.org tools may have only weaker understanding of extra types, in particular those defined externally.",
            "type": "Text",
            "readonly": true,
            "value":"javascript:return this.model.name;"
        }
    ],
    "privileges": [
        {
            "mask": 1,
            "type": "global",
            "account": "*"
        },
        {
            "mask": 15,
            "type": "global"
        }
    ]
}