{
    "id": 9463508,
    "@id": "https://themost.io/schemas/GeoPolygon",
    "name": "GeoPolygon",
    "title": "Geo Polygon",
    "description": "A GeoPolygon is a GeoShape representing a polygon. A polygon is the area enclosed by a point-to-point path for which the starting and ending points are the same.",
    "hidden": true,
    "sealed": false,
    "inherits": "GeoShape",
    "version": "1.1",
    "fields": [
        {
            "name": "id",
            "title": "ID",
            "description": "The identifier of the item.",
            "type": "Integer",
            "nullable": false,
            "primary": true
        },
        {
            "@id": "http://schema.org/additionalType",
            "name": "additionalType",
            "title": "Additional Type",
            "description": "An additional type for the item, typically used for adding more specific types from external vocabularies in microdata syntax. This is a relationship between something and a class that the thing is in. In RDFa syntax, it is better to use the native RDFa syntax - the 'typeof' attribute - for multiple types. Schema.org tools may have only weaker understanding of extra types, in particular those defined externally.",
            "type": "Text",
            "readonly": true,
            "value":"javascript:return this.model.name;"
        },
        {
            "@id": "https://themost.io/schemas/geoPoints",
            "name": "geoPoints",
            "title": "Geo Points",
            "description": "Indicates a series of geographical points.",
            "type": "GeoCoordinates",
            "many": true,
            "expandable": true
        }
    ],
    "privileges": [
        {
            "mask": 15,
            "type": "global"
        }
    ]
}